…
}
  
create_chord_df()
#> # A tibble: 24 × 8
#>    around       y00    x00 majmin chord     r      x         y
#>     <dbl>     <dbl>  <dbl> <fct>  <chr> <dbl>  <dbl>     <dbl>
#>  1 0.0833  8.66e- 1 -0.5   major  F         2 -1      1.73e+ 0
#>  2 0.0833  8.66e- 1 -0.5   minor  Dm        1 -0.5    8.66e- 1
#>  3 0.167   5.00e- 1 -0.866 major  Bb        2 -1.73   1.00e+ 0
#>  4 0.167   5.00e- 1 -0.866 minor  Gm        1 -0.866  5.00e- 1
#>  5 0.25    1.22e-16 -1     major  Eb        2 -2      2.45e-16
#>  6 0.25    1.22e-16 -1     minor  Cm        1 -1      1.22e-16
#>  7 0.333  -5   e- 1 -0.866 major  Ab        2 -1.73  -1   e+ 0
#>  8 0.333  -5   e- 1 -0.866 minor  Fm        1 -0.866 -5   e- 1
#>  9 0.417  -8.66e- 1 -0.500 major  Db        2 -1.000 -1.73e+ 0
#> 10 0.417  -8.66e- 1 -0.500 minor  Bbm       1 -0.500 -8.66e- 1
#> # ℹ 14 more rows
…
